%YAML 1.1
%TAG !u! tag:unity3d.com,2011:
--- !u!114 &11400000
MonoBehaviour:
  m_ObjectHideFlags: 0
  m_PrefabParentObject: {fileID: 0}
  m_PrefabInternal: {fileID: 0}
  m_GameObject: {fileID: 0}
  m_Enabled: 1
  m_EditorHideFlags: 0
  m_Script: {fileID: 11500000, guid: bf7d8c2467cd27f41bd4c3ff344c83c2, type: 3}
  m_Name: Game State
  m_EditorClassIdentifier: 
  state: 0
  stateChangeEvent: {fileID: 11400000, guid: d5990b045b652e944b65cc6a5ba6fe3f, type: 2}
